…
## Installation

``` r
install.packages("dataset.json.examples", repos = "https://patterninstitute.r-universe.dev")
```

## Dataset-JSON files

`example_path()` returns the paths to the example Dataset-JSON files:

``` r
library(dataset.json.examples)
example_path()
#> # A tibble: 43 × 4
#>    name    file            rel_path             abs_path                        
#>    <chr>   <chr>           <chr>                <chr>                           
#>  1 adadas  adadas.json.xz  adam/adadas.json.xz  /home/rmagno/R/x86_64-pc-linux-…
#>  2 adae    adae.json.xz    adam/adae.json.xz    /home/rmagno/R/x86_64-pc-linux-…
#>  3 adcibc  adcibc.json.xz  adam/adcibc.json.xz  /home/rmagno/R/x86_64-pc-linux-…
#>  4 adlbc   adlbc.json.xz   adam/adlbc.json.xz   /home/rmagno/R/x86_64-pc-linux-…
#>  5 adlbcpv adlbcpv.json.xz adam/adlbcpv.json.xz /home/rmagno/R/x86_64-pc-linux-…
#>  6 adlbh   adlbh.json.xz   adam/adlbh.json.xz   /home/rmagno/R/x86_64-pc-linux-…
#>  7 adlbhpv adlbhpv.json.xz adam/adlbhpv.json.xz /home/rmagno/R/x86_64-pc-linux-…
#>  8 adlbhy  adlbhy.json.xz  adam/adlbhy.json.xz  /home/rmagno/R/x86_64-pc-linux-…
#>  9 adnpix  adnpix.json.xz  adam/adnpix.json.xz  /home/rmagno/R/x86_64-pc-linux-…
#> 10 adsl    adsl.json.xz    adam/adsl.json.xz    /home/rmagno/R/x86_64-pc-linux-…
#> # ℹ 33 more rows
```
…
